{
  "questions": [
    {
      "id": 1,
      "question": "What is the second largest country (total area)?",
      "answers": ["United States", "Russia", "Canada", "China"],
      "correctAnswer": 2
    },
    {
      "id": 2,
      "question": "What is the most common language?",
      "answers": ["English", "Hindi", "Spanish", "Mandarin"],
      "correctAnswer": 3
    },
    {
      "id": 3,
      "question": "What is the largest ocean?",
      "answers": [
        "Pacific Ocean",
        "Southern Ocean",
        "Indian Ocean",
        "Atlantic Ocean"
      ],
      "correctAnswer": 0
    },
    {
      "id": 4,
      "question": "What is the diameter of Earth (nearest km)?",
      "answers": ["12,802km", "12,734km", "31,243km", "6,938km"],
      "correctAnswer": 1
    },
    {
      "id": 5,
      "question": "Which of these countries is the smallest (population)?",
      "answers": [
        "Vatican City",
        "Tokelau",
        "Cocos Keeling Islands",
        "Christmas Island"
      ],
      "correctAnswer": 2
    }
  ]
}
